<svg xmlns="http://www.w3.org/2000/svg" width="52.116" height="36.168" viewBox="0 0 52.116 36.168">
  <g id="Grupo_1389" data-name="Grupo 1389" transform="translate(2.116 1.061)">
    <g id="Grupo_138" data-name="Grupo 138" transform="translate(0)">
      <path id="Caminho_60" data-name="Caminho 60" d="M-10650.469-8941.1l-17.024,17.024,17.024,17.022" transform="translate(10667.498 8941.101)" fill="none" stroke="#000" stroke-width="3"/>
      <line id="Linha_32" data-name="Linha 32" x2="50" transform="translate(0 17.102)" fill="none" stroke="#000" stroke-width="3"/>
    </g>
  </g>
</svg>
