<svg xmlns="http://www.w3.org/2000/svg" width="23.172" height="29.976" viewBox="0 0 23.172 29.976">
  <g id="Grupo_132" data-name="Grupo 132" transform="translate(983.641 599.385) rotate(180)">
    <path id="Caminho_58" data-name="Caminho 58" d="M-12719.021-9656.135v-23.689" transform="translate(13690.875 10254.02)" fill="none" stroke="#f84c4c" stroke-linecap="round" stroke-width="3"/>
    <path id="Caminho_59" data-name="Caminho 59" d="M-12725.409-9672.626l9.463-9.465,9.467,9.465" transform="translate(13687.999 10253)" fill="none" stroke="#f84c4c" stroke-linecap="round" stroke-linejoin="round" stroke-width="3"/>
  </g>
</svg>
