<svg xmlns="http://www.w3.org/2000/svg" width="38.331" height="31.114" viewBox="0 0 38.331 31.114">
  <g id="Grupo_153" data-name="Grupo 153" transform="translate(1.5 2.121)">
    <path id="Caminho_3" data-name="Caminho 3" d="M-5010.632,2844h-35.122" transform="translate(5045.963 -2830.631)" fill="none" stroke="#fff" stroke-linecap="round" stroke-width="3"/>
    <path id="Caminho_4" data-name="Caminho 4" d="M-5043.229,2877.2l-13.436-13.436,13.436-13.436" transform="translate(5056.664 -2850.324)" fill="none" stroke="#fff" stroke-linecap="round" stroke-linejoin="round" stroke-width="3"/>
  </g>
</svg>
