<svg xmlns="http://www.w3.org/2000/svg" width="17.473" height="10.15" viewBox="0 0 17.473 10.15">
  <path id="Caminho_10022" data-name="Caminho 10022" d="M-21722.115-11182l8.029,8.029,8.029-8.029" transform="translate(-21705.35 -11172.557) rotate(180)" fill="none" stroke="#fff" stroke-width="2"/>
</svg>
