<svg xmlns="http://www.w3.org/2000/svg" width="17.473" height="10.15" viewBox="0 0 17.473 10.15">
  <path id="Caminho_10024" data-name="Caminho 10024" d="M-21722.115-11182l8.029,8.029,8.029-8.029" transform="translate(21722.822 11182.707)" fill="none" stroke="#fff" stroke-width="2"/>
</svg>
