<svg xmlns="http://www.w3.org/2000/svg" width="207.564" height="160.276" viewBox="0 0 207.564 160.276">
  <g id="Grupo_236" data-name="Grupo 236" transform="translate(-628 -559.487)">
    <path id="Caminho_91" data-name="Caminho 91" d="M-18230.715-5400.756l-105.254-55.9-2.262,5s75.227,44.982,101.465,58.509C-18232.187-5394.136-18230.715-5400.756-18230.715-5400.756Z" transform="translate(18977.793 6112.906)" fill="#d6d8dd"/>
    <circle id="Elipse_29" data-name="Elipse 29" cx="12" cy="12" r="12" transform="translate(628 646)" fill="#ea6300" opacity="0.422"/>
    <path id="Caminho_129" data-name="Caminho 129" d="M-21238-5293.117s33.311-68.743,90.648-41.736,116.221-8.243,101.613-50.333" transform="translate(21878 5945)" fill="none" stroke="#707070" stroke-width="2" stroke-dasharray="2"/>
  </g>
</svg>
