<svg xmlns="http://www.w3.org/2000/svg" width="41.971" height="34.005" viewBox="0 0 41.971 34.005">
  <g id="three-buildings" transform="translate(2 -44.366)">
    <g id="Grupo_165" data-name="Grupo 165" transform="translate(0 46.366)">
      <g id="Caminho_81" data-name="Caminho 81" transform="translate(-120.984 -46.366)" fill="none" stroke-linejoin="round">
        <path d="M131.012,76.371h6.554v-6.7h3.939v6.7h6.554V46.366H131.012ZM140.731,49.9h3.939v3.939h-3.939Zm0,6.331h3.939v3.939h-3.939Zm0,6.331h3.939V66.5h-3.939ZM134.4,49.9h3.939v3.939H134.4Zm0,6.331h3.939v3.939H134.4Zm0,6.331h3.939V66.5H134.4Z" stroke="none"/>
        <path d="M 148.0591125488281 76.37102508544922 L 148.0591125488281 46.36600494384766 L 131.0119934082031 46.36600494384766 L 131.0119934082031 76.37102508544922 L 137.5658416748047 76.37102508544922 L 137.5658416748047 69.66921234130859 L 141.5052490234375 69.66921234130859 L 141.5052490234375 76.37102508544922 L 148.0591125488281 76.37102508544922 M 140.7313995361328 62.56432342529297 L 144.6707305908203 62.56432342529297 L 144.6707305908203 66.50373840332031 L 140.7313995361328 66.50373840332031 L 140.7313995361328 62.56432342529297 M 134.4002838134766 62.56432342529297 L 138.3396148681641 62.56432342529297 L 138.3396148681641 66.50373840332031 L 134.4002838134766 66.50373840332031 L 134.4002838134766 62.56432342529297 M 140.7313995361328 56.23329544067383 L 144.6707305908203 56.23329544067383 L 144.6707305908203 60.17269515991211 L 140.7313995361328 60.17269515991211 L 140.7313995361328 56.23329544067383 M 134.4002838134766 56.23329544067383 L 138.3396148681641 56.23329544067383 L 138.3396148681641 60.17269515991211 L 134.4002838134766 60.17269515991211 L 134.4002838134766 56.23329544067383 M 140.7313995361328 49.90209579467773 L 144.6707305908203 49.90209579467773 L 144.6707305908203 53.84149551391602 L 140.7313995361328 53.84149551391602 L 140.7313995361328 49.90209579467773 M 134.4002838134766 49.90209579467773 L 138.3396148681641 49.90209579467773 L 138.3396148681641 53.84149551391602 L 134.4002838134766 53.84149551391602 L 134.4002838134766 49.90209579467773 M 148.0591125488281 78.37102508544922 L 141.5052490234375 78.37102508544922 C 140.5196075439453 78.37102508544922 139.7005004882813 77.65809631347656 139.5355529785156 76.71973419189453 C 139.3705902099609 77.65809631347656 138.5514831542969 78.37102508544922 137.5658416748047 78.37102508544922 L 131.0119934082031 78.37102508544922 C 129.9074249267578 78.37102508544922 129.0119934082031 77.47559356689453 129.0119934082031 76.37102508544922 L 129.0119934082031 46.36600494384766 C 129.0119934082031 45.26143646240234 129.9074249267578 44.36600494384766 131.0119934082031 44.36600494384766 L 148.0591125488281 44.36600494384766 C 149.1636810302734 44.36600494384766 150.0591125488281 45.26143646240234 150.0591125488281 46.36600494384766 L 150.0591125488281 76.37102508544922 C 150.0591125488281 77.47559356689453 149.1636810302734 78.37102508544922 148.0591125488281 78.37102508544922 Z" stroke="none" fill="#ff5f39"/>
      </g>
      <g id="Caminho_82" data-name="Caminho 82" transform="translate(-344.246 -78.794)" fill="none" stroke-linejoin="round">
        <path d="M373.719,81.482V102.7h2.531v6.1h5.967V81.482Zm5.413,18.334h-3.587V96.229h3.586v3.586Zm0-5.764h-3.587V90.465h3.586v3.586Zm0-5.764h-3.587V84.7h3.586v3.586Z" stroke="none"/>
        <path d="M 373.718994140625 81.48198699951172 L 373.718994140625 102.6978302001953 L 376.2498779296875 102.6978302001953 L 376.2498779296875 108.7991561889648 L 382.2166442871094 108.7991561889648 L 382.2166442871094 81.48198699951172 L 373.718994140625 81.48198699951172 M 379.1318359375 88.28782653808594 L 379.1319274902344 88.28782653808594 L 375.5453796386719 88.28782653808594 L 375.5453796386719 84.70144653320313 L 379.1318359375 84.70144653320313 L 379.1319274902344 88.28782653808594 M 379.1318359375 94.05184936523438 L 379.1319274902344 94.05184936523438 L 375.5453796386719 94.05184936523438 L 375.5453796386719 90.46544647216797 L 379.1318359375 90.46544647216797 L 379.1319274902344 94.05184936523438 M 379.1318359375 99.81592559814453 L 379.1319274902344 99.81592559814453 L 375.5453796386719 99.81592559814453 L 375.5453796386719 96.22947692871094 L 379.1318359375 96.22947692871094 L 379.1319274902344 99.81592559814453 M 373.718994140625 79.48198699951172 L 382.2166442871094 79.48198699951172 C 383.3212280273438 79.48198699951172 384.2166442871094 80.37741851806641 384.2166442871094 81.48198699951172 L 384.2166442871094 108.7991561889648 C 384.2166442871094 109.9037322998047 383.3212280273438 110.7991561889648 382.2166442871094 110.7991561889648 L 376.2498779296875 110.7991561889648 C 375.1452941894531 110.7991561889648 374.2498779296875 109.9037322998047 374.2498779296875 108.7991561889648 L 374.2498779296875 104.6978302001953 L 373.718994140625 104.6978302001953 C 372.6144104003906 104.6978302001953 371.718994140625 103.8023986816406 371.718994140625 102.6978302001953 L 371.718994140625 81.48198699951172 C 371.718994140625 80.37741851806641 372.6144104003906 79.48198699951172 373.718994140625 79.48198699951172 Z" stroke="none" fill="#ff5f39"/>
      </g>
      <g id="Caminho_83" data-name="Caminho 83" transform="translate(0 -78.794)" fill="none" stroke-linejoin="round">
        <path d="M0,108.8H5.967v-6.1H8.5V81.482H0ZM3.085,84.7H6.671v3.586H3.085Zm0,5.764H6.671v3.586H3.085Zm0,5.764H6.671v3.586H3.085Z" stroke="none"/>
        <path d="M 5.966772079467773 108.7991714477539 L 5.966772079467773 102.6978302001953 L 8.497642517089844 102.6978302001953 L 8.497642517089844 81.48200225830078 L 2.212219214925426e-06 81.48200225830078 L 2.212219214925426e-06 108.7991714477539 L 5.966772079467773 108.7991714477539 M 3.084802150726318 96.22933197021484 L 6.671272277832031 96.22933197021484 L 6.671272277832031 99.81571197509766 L 3.084802150726318 99.81571197509766 L 3.084802150726318 96.22933197021484 M 3.084802150726318 90.46546173095703 L 6.671272277832031 90.46546173095703 L 6.671272277832031 94.05184936523438 L 3.084802150726318 94.05184936523438 L 3.084802150726318 90.46546173095703 M 3.084802150726318 84.70144653320313 L 6.671272277832031 84.70144653320313 L 6.671272277832031 88.28782653808594 L 3.084802150726318 88.28782653808594 L 3.084802150726318 84.70144653320313 M 5.966772079467773 110.7991714477539 L 2.212219214925426e-06 110.7991714477539 C -1.104567766189575 110.7991714477539 -1.999997735023499 109.9037399291992 -1.999997735023499 108.7991714477539 L -1.999997735023499 81.48200225830078 C -1.999997735023499 80.37742614746094 -1.104567766189575 79.48200225830078 2.212219214925426e-06 79.48200225830078 L 8.497642517089844 79.48200225830078 C 9.602211952209473 79.48200225830078 10.49764251708984 80.37742614746094 10.49764251708984 81.48200225830078 L 10.49764251708984 102.6978302001953 C 10.49764251708984 103.8023986816406 9.602211952209473 104.6978302001953 8.497642517089844 104.6978302001953 L 7.966772079467773 104.6978302001953 L 7.966772079467773 108.7991714477539 C 7.966772079467773 109.9037399291992 7.071341991424561 110.7991714477539 5.966772079467773 110.7991714477539 Z" stroke="none" fill="#ff5f39"/>
      </g>
    </g>
  </g>
</svg>
