<svg xmlns="http://www.w3.org/2000/svg" width="33" height="26.457" viewBox="0 0 33 26.457">
  <g id="chat_1_" data-name="chat (1)" transform="translate(0 -50.758)">
    <g id="Grupo_218" data-name="Grupo 218" transform="translate(0 50.758)">
      <g id="Grupo_217" data-name="Grupo 217" transform="translate(0 0)">
        <path id="Caminho_116" data-name="Caminho 116" d="M24,50.758H1.858A1.86,1.86,0,0,0,0,52.616V65.9a1.86,1.86,0,0,0,1.858,1.858H3.294V72.7a.778.778,0,0,0,1.329.55l5.495-5.495h1.1a.778.778,0,0,0,0-1.557s-1.462,0-1.478,0a.775.775,0,0,0-.5.225L4.851,70.82s0-3.892,0-3.913a.778.778,0,0,0-.775-.709H1.858a.3.3,0,0,1-.3-.3V52.616a.3.3,0,0,1,.3-.3H24a.3.3,0,0,1,.3.3v5.1a.778.778,0,0,0,1.557,0v-5.1A1.86,1.86,0,0,0,24,50.758Z" transform="translate(0 -50.758)"/>
      </g>
    </g>
    <g id="Grupo_220" data-name="Grupo 220" transform="translate(13.788 60.28)">
      <g id="Grupo_219" data-name="Grupo 219">
        <path id="Caminho_117" data-name="Caminho 117" d="M231.277,198.492h-15.5a1.86,1.86,0,0,0-1.858,1.858v9.06a1.86,1.86,0,0,0,1.858,1.858h9.7l3.93,3.93a.779.779,0,0,0,1.329-.551v-3.38h.535a1.86,1.86,0,0,0,1.858-1.858v-9.06A1.86,1.86,0,0,0,231.277,198.492Zm.3,10.918a.3.3,0,0,1-.3.3h-1.313a.778.778,0,0,0-.775.718c0,.017,0,2.339,0,2.339l-2.827-2.827-.009-.009-.032-.029a.775.775,0,0,0-.512-.194H215.781a.3.3,0,0,1-.3-.3v-9.06a.3.3,0,0,1,.3-.3h15.5a.3.3,0,0,1,.3.3Z" transform="translate(-213.923 -198.492)"/>
      </g>
    </g>
    <g id="Grupo_222" data-name="Grupo 222" transform="translate(22.616 65.89)">
      <g id="Grupo_221" data-name="Grupo 221">
        <path id="Caminho_118" data-name="Caminho 118" d="M351.664,285.53a.778.778,0,1,0,.778.778A.779.779,0,0,0,351.664,285.53Z" transform="translate(-350.886 -285.53)"/>
      </g>
    </g>
    <g id="Grupo_224" data-name="Grupo 224" transform="translate(5.064 55.905)">
      <g id="Grupo_223" data-name="Grupo 223" transform="translate(0 0)">
        <path id="Caminho_119" data-name="Caminho 119" d="M93.519,130.611H79.35a.778.778,0,0,0,0,1.557H93.519a.778.778,0,0,0,0-1.557Z" transform="translate(-78.572 -130.611)"/>
      </g>
    </g>
    <g id="Grupo_226" data-name="Grupo 226" transform="translate(5.064 61.052)">
      <g id="Grupo_225" data-name="Grupo 225" transform="translate(0 0)">
        <path id="Caminho_120" data-name="Caminho 120" d="M84.727,210.465H79.35a.778.778,0,0,0,0,1.557h5.377a.778.778,0,0,0,0-1.557Z" transform="translate(-78.572 -210.465)"/>
      </g>
    </g>
    <g id="Grupo_228" data-name="Grupo 228" transform="translate(18.998 65.89)">
      <g id="Grupo_227" data-name="Grupo 227">
        <path id="Caminho_121" data-name="Caminho 121" d="M295.537,285.53a.778.778,0,1,0,.778.778A.779.779,0,0,0,295.537,285.53Z" transform="translate(-294.759 -285.53)"/>
      </g>
    </g>
    <g id="Grupo_230" data-name="Grupo 230" transform="translate(26.233 65.89)">
      <g id="Grupo_229" data-name="Grupo 229">
        <path id="Caminho_122" data-name="Caminho 122" d="M407.779,285.53a.778.778,0,1,0,.778.778A.779.779,0,0,0,407.779,285.53Z" transform="translate(-407.001 -285.53)"/>
      </g>
    </g>
  </g>
</svg>
