<svg id="clock-circular-outline" xmlns="http://www.w3.org/2000/svg" width="21.857" height="21.857" viewBox="0 0 21.857 21.857">
  <g id="Grupo_143" data-name="Grupo 143">
    <path id="Caminho_63" data-name="Caminho 63" d="M10.928,0A10.928,10.928,0,1,0,21.857,10.928,10.941,10.941,0,0,0,10.928,0Zm0,19.531a8.6,8.6,0,1,1,8.6-8.6A8.613,8.613,0,0,1,10.928,19.531Z" fill="#ff5f39"/>
    <path id="Caminho_64" data-name="Caminho 64" d="M50.777,23.635H45.866V17.73a.9.9,0,1,0-1.8,0v6.8a.9.9,0,0,0,.9.9h5.811a.9.9,0,1,0,0-1.8Z" transform="translate(-34.153 -13.044)" fill="#ff5f39"/>
  </g>
</svg>
