<svg xmlns="http://www.w3.org/2000/svg" width="26.519" height="14.674" viewBox="0 0 26.519 14.674">
  <path id="Caminho_10029" data-name="Caminho 10029" d="M-13154.055-8357.5l12.553,12.553,12.552-12.553" transform="translate(13154.762 8358.207)" fill="none" stroke="#707070" stroke-width="2"/>
</svg>
