<svg xmlns="http://www.w3.org/2000/svg" width="33.866" height="33.866" viewBox="0 0 33.866 33.866">
  <g id="edit_1_" data-name="edit (1)" transform="translate(0 -0.004)">
    <g id="Grupo_1427" data-name="Grupo 1427" transform="translate(0 2.423)">
      <g id="Grupo_1426" data-name="Grupo 1426">
        <path id="Caminho_10034" data-name="Caminho 10034" d="M27.818,48.651a1.21,1.21,0,0,0-1.21,1.21V61.955a1.21,1.21,0,0,1-1.21,1.21H3.628a1.21,1.21,0,0,1-1.21-1.21V37.765a1.21,1.21,0,0,1,1.21-1.21H18.142a1.209,1.209,0,1,0,0-2.419H3.628A3.628,3.628,0,0,0,0,37.765v24.19a3.628,3.628,0,0,0,3.628,3.628H25.4a3.628,3.628,0,0,0,3.628-3.628V49.86A1.209,1.209,0,0,0,27.818,48.651Z" transform="translate(0 -34.137)" fill="#212a46"/>
      </g>
    </g>
    <g id="Grupo_1429" data-name="Grupo 1429" transform="translate(7.258 0.004)">
      <g id="Grupo_1428" data-name="Grupo 1428" transform="translate(0 0)">
        <path id="Caminho_10035" data-name="Caminho 10035" d="M127.662,1.36a4.63,4.63,0,0,0-6.549,0l-15.932,15.93a1.223,1.223,0,0,0-.291.473l-2.419,7.257a1.21,1.21,0,0,0,1.147,1.592,1.229,1.229,0,0,0,.382-.062l7.257-2.419a1.21,1.21,0,0,0,.473-.293L127.661,7.908A4.63,4.63,0,0,0,127.662,1.36ZM125.951,6.2,110.227,21.922l-4.7,1.569,1.564-4.692,15.73-15.723A2.21,2.21,0,1,1,125.951,6.2Z" transform="translate(-102.409 -0.004)" fill="#212a46"/>
      </g>
    </g>
  </g>
</svg>
