<svg xmlns="http://www.w3.org/2000/svg" width="42" height="42" viewBox="0 0 42 42">
  <g id="Grupo_1504" data-name="Grupo 1504" transform="translate(-71 -362)">
    <g id="Elipse_120" data-name="Elipse 120" transform="translate(71 362)" fill="none" stroke="#fff" stroke-width="2">
      <circle cx="21" cy="21" r="21" stroke="none"/>
      <circle cx="21" cy="21" r="20" fill="none"/>
    </g>
    <path id="Caminho_10067" data-name="Caminho 10067" d="M-8066.267-9733l6.385,6.386,11.9-11.9" transform="translate(8149.125 10116)" fill="none" stroke="#feffff" stroke-width="2"/>
  </g>
</svg>
