<svg xmlns="http://www.w3.org/2000/svg" xmlns:xlink="http://www.w3.org/1999/xlink" width="109" height="109" viewBox="0 0 109 109">
  <defs>
    <filter id="Retângulo_240" x="-30" y="-20" width="169" height="169" filterUnits="userSpaceOnUse">
      <feOffset dy="10" input="SourceAlpha"/>
      <feGaussianBlur stdDeviation="10" result="blur"/>
      <feFlood flood-opacity="0.161"/>
      <feComposite operator="in" in2="blur"/>
      <feComposite in="SourceGraphic"/>
    </filter>
    <clipPath id="clip-Prancheta_2">
      <rect width="109" height="109"/>
    </clipPath>
  </defs>
  <g id="Prancheta_2" data-name="Prancheta – 2" clip-path="url(#clip-Prancheta_2)">
    <rect width="109" height="109" fill="#fff"/>
    <g id="Grupo_300" data-name="Grupo 300" transform="translate(-1110 -2608)">
      <g transform="matrix(1, 0, 0, 1, 1110, 2608)" filter="url(#Retângulo_240)">
        <rect id="Retângulo_240-2" data-name="Retângulo 240" width="109" height="109" rx="13" fill="#c8f29e"/>
      </g>
    </g>
    <g id="Grupo_301" data-name="Grupo 301" transform="translate(-3750.168 -1820.903)">
      <path id="friends-2" d="M47.89,19.078H44.02c-.117,0-.233,0-.348.012a12.258,12.258,0,0,0-2.86-1.91,9.188,9.188,0,1,0-11.99-1.2H22.062a9.186,9.186,0,1,0-12.542.775A12.2,12.2,0,0,0,5.664,19.09c-.115-.008-.231-.012-.348-.012H1.445A1.445,1.445,0,0,0,0,20.523v7.741A1.445,1.445,0,0,0,1.445,29.71h.1V40.65A1.446,1.446,0,0,0,2.994,42.1H46.342a1.446,1.446,0,0,0,1.445-1.445V29.71h.1a1.445,1.445,0,0,0,1.445-1.445V20.523A1.445,1.445,0,0,0,47.89,19.078Zm-1.445,7.741H44.02a2.425,2.425,0,1,1,0-4.85h2.425ZM29.21,9.686a6.3,6.3,0,1,1,6.3,6.3A6.3,6.3,0,0,1,29.21,9.686Zm-13.831-6.3a6.3,6.3,0,1,1-6.3,6.3A6.3,6.3,0,0,1,15.379,3.391ZM2.891,21.969H5.316a2.425,2.425,0,1,1,0,4.85H2.891ZM4.439,29.71h.877A5.312,5.312,0,0,0,8.749,20.34h.034a9.329,9.329,0,0,1,5.048-1.468H27.6a12.259,12.259,0,0,0-4.377,9.392V39.2H10.631v-6.3a1.445,1.445,0,1,0-2.891,0v6.3h-3.3ZM44.9,39.2h-3.3v-6.3a1.445,1.445,0,1,0-2.891,0v6.3H26.113V28.264a9.4,9.4,0,0,1,14.459-7.912A5.313,5.313,0,0,0,44.02,29.71H44.9Zm0,0" transform="translate(3781 1862.285)" fill="#769b33"/>
      <g id="Elipse_65" data-name="Elipse 65" transform="translate(3794.25 1837.903)" fill="none" stroke="#769b33" stroke-width="3">
        <ellipse cx="11" cy="11.5" rx="11" ry="11.5" stroke="none"/>
        <ellipse cx="11" cy="11.5" rx="9.5" ry="10" fill="none"/>
      </g>
      <text id="_" data-name="$" transform="translate(3802.25 1853.903)" fill="#769b33" font-size="13" font-family="OpenSans-Bold, Open Sans" font-weight="700"><tspan x="0" y="0">$</tspan></text>
    </g>
  </g>
</svg>
