<svg xmlns="http://www.w3.org/2000/svg" width="23.163" height="21.541" viewBox="0 0 23.163 21.541">
  <g id="download_2_" data-name="download (2)" transform="translate(22.663 38.291) rotate(180)">
    <g id="Agrupar_91" data-name="Agrupar 91" transform="translate(0 17.25)">
      <path id="Caminho_84" data-name="Caminho 84" d="M21.528,228.244a.632.632,0,0,0-.635.635v5.776a2.849,2.849,0,0,1-2.846,2.846H4.116a2.849,2.849,0,0,1-2.846-2.846v-5.87a.635.635,0,0,0-1.27,0v5.87a4.12,4.12,0,0,0,4.116,4.116H18.047a4.12,4.12,0,0,0,4.116-4.116v-5.776A.635.635,0,0,0,21.528,228.244Z" transform="translate(0 -218.23)" fill="#212a46" stroke="#212a46" stroke-width="1"/>
      <path id="Caminho_85" data-name="Caminho 85" d="M140.452,32.748a.639.639,0,0,0,.447.188.62.62,0,0,0,.447-.188l4.036-4.036a.636.636,0,1,0-.9-.9l-2.949,2.954V17.885a.635.635,0,1,0-1.27,0V30.768l-2.954-2.954a.636.636,0,0,0-.9.9Z" transform="translate(-129.818 -17.25)" fill="#212a46" stroke="#212a46" stroke-width="1"/>
    </g>
  </g>
</svg>
