<svg xmlns="http://www.w3.org/2000/svg" width="43.681" height="28.1" viewBox="0 0 43.681 28.1">
  <g id="group_5_" data-name="group (5)" transform="translate(0.5 -91.75)">
    <g id="Grupo_166" data-name="Grupo 166" transform="translate(0 92.25)">
      <path id="Caminho_84" data-name="Caminho 84" d="M36.913,104.174a4.873,4.873,0,1,0-5.591,0,8.443,8.443,0,0,0-2.88,1.689,10.925,10.925,0,0,0-3.952-2.153,6.173,6.173,0,1,0-6.384,0,11.016,11.016,0,0,0-3.91,2.128,8.511,8.511,0,0,0-2.846-1.655,4.873,4.873,0,1,0-5.591,0A8.553,8.553,0,0,0,0,112.264v.557a.036.036,0,0,0,.034.034H10.362a11.358,11.358,0,0,0-.093,1.427v.574a4.491,4.491,0,0,0,4.493,4.493h13.09a4.491,4.491,0,0,0,4.493-4.493v-.574a11.358,11.358,0,0,0-.093-1.427h10.4a.036.036,0,0,0,.034-.034v-.557A8.586,8.586,0,0,0,36.913,104.174ZM30.6,100.18a3.522,3.522,0,1,1,3.589,3.522H34.05A3.516,3.516,0,0,1,30.6,100.18ZM16.459,98.423a4.822,4.822,0,1,1,5.1,4.814H21A4.829,4.829,0,0,1,16.459,98.423ZM5.008,100.18A3.522,3.522,0,1,1,8.6,103.7H8.462A3.522,3.522,0,0,1,5.008,100.18ZM10.6,111.5H1.368a7.216,7.216,0,0,1,7.111-6.443h.1a7.14,7.14,0,0,1,4.6,1.714A11.088,11.088,0,0,0,10.6,111.5Zm20.378,3.361A3.146,3.146,0,0,1,27.834,118H14.745a3.146,3.146,0,0,1-3.142-3.142v-.574A9.7,9.7,0,0,1,21,104.6c.093.008.194.008.287.008s.194,0,.287-.008a9.7,9.7,0,0,1,9.4,9.686Zm1-3.361a11.059,11.059,0,0,0-2.559-4.7,7.175,7.175,0,0,1,4.645-1.748h.1a7.216,7.216,0,0,1,7.111,6.443Z" transform="translate(0 -92.25)" fill="#212a46" stroke="#212a46" stroke-width="1"/>
    </g>
  </g>
</svg>
