<svg xmlns="http://www.w3.org/2000/svg" width="36" height="33" viewBox="0 0 36 33">
  <g id="Componente_2_15" data-name="Componente 2 – 15" transform="translate(1.5 1.5)">
    <line id="Linha_1" data-name="Linha 1" x2="33" transform="translate(33 30) rotate(180)" fill="none" stroke="#fff" stroke-linecap="round" stroke-width="3"/>
    <line id="Linha_2" data-name="Linha 2" x2="27" transform="translate(30 20) rotate(180)" fill="none" stroke="#fff" stroke-linecap="round" stroke-width="3"/>
    <line id="Linha_3" data-name="Linha 3" x2="21" transform="translate(27 10) rotate(180)" fill="none" stroke="#fff" stroke-linecap="round" stroke-width="3"/>
    <line id="Linha_4" data-name="Linha 4" x1="13" transform="translate(10)" fill="none" stroke="#fff" stroke-linecap="round" stroke-width="3"/>
  </g>
</svg>
