<svg id="magic-wand" xmlns="http://www.w3.org/2000/svg" width="26.471" height="26.471" viewBox="0 0 26.471 26.471">
  <path id="Caminho_139" data-name="Caminho 139" d="M369.662,6.618a3.309,3.309,0,0,1,3.309-3.309A3.309,3.309,0,0,1,369.662,0a3.309,3.309,0,0,1-3.309,3.309A3.309,3.309,0,0,1,369.662,6.618Z" transform="translate(-346.5)" fill="#ff5f39"/>
  <path id="Caminho_140" data-name="Caminho 140" d="M399.365,183.176a2.482,2.482,0,0,1-2.482,2.482,2.482,2.482,0,0,1,2.482,2.482,2.482,2.482,0,0,1,2.482-2.482A2.482,2.482,0,0,1,399.365,183.176Z" transform="translate(-375.375 -173.249)" fill="#ff5f39"/>
  <path id="Caminho_141" data-name="Caminho 141" d="M127.081,9.927a4.963,4.963,0,0,1,4.963-4.963A4.963,4.963,0,0,1,127.081,0a4.963,4.963,0,0,1-4.963,4.963A4.963,4.963,0,0,1,127.081,9.927Z" transform="translate(-115.5)" fill="#ff5f39"/>
  <path id="Caminho_142" data-name="Caminho 142" d="M18.2,91.588,0,109.787,3.309,113.1l18.2-18.2Zm-2.824,5.306,2.339-2.339.827.827L16.2,97.721l-.827-.827Z" transform="translate(0 -86.625)" fill="#ff5f39"/>
</svg>
