<svg xmlns="http://www.w3.org/2000/svg" xmlns:xlink="http://www.w3.org/1999/xlink" width="109" height="109" viewBox="0 0 109 109">
  <defs>
    <filter id="Retângulo_239" x="-30" y="-20" width="169" height="169" filterUnits="userSpaceOnUse">
      <feOffset dy="10" input="SourceAlpha"/>
      <feGaussianBlur stdDeviation="10" result="blur"/>
      <feFlood flood-opacity="0.161"/>
      <feComposite operator="in" in2="blur"/>
      <feComposite in="SourceGraphic"/>
    </filter>
    <clipPath id="clip-Prancheta_2">
      <rect width="109" height="109"/>
    </clipPath>
  </defs>
  <g id="Prancheta_2" data-name="Prancheta – 2" clip-path="url(#clip-Prancheta_2)">
    <rect width="109" height="109" fill="#fff"/>
    <g id="Grupo_307" data-name="Grupo 307" transform="translate(-248 -2634)">
      <g transform="matrix(1, 0, 0, 1, 248, 2634)" filter="url(#Retângulo_239)">
        <rect id="Retângulo_239-2" data-name="Retângulo 239" width="109" height="109" rx="13" fill="#ffa8a8"/>
      </g>
      <g id="request" transform="translate(276 2662)">
        <path id="Caminho_345" data-name="Caminho 345" d="M340.563,218.48a1.582,1.582,0,1,1-1.582-1.582A1.582,1.582,0,0,1,340.563,218.48Zm0,0" transform="translate(-301.813 -194.022)" fill="#e31d1d"/>
        <path id="Caminho_346" data-name="Caminho 346" d="M303.051,72.3a5.814,5.814,0,0,0-5.816,5.816v0a1.582,1.582,0,1,0,3.164,0,2.654,2.654,0,1,1,2.654,2.656,1.582,1.582,0,0,0-1.582,1.582V84.05a1.582,1.582,0,0,0,3.164,0v-.331A5.819,5.819,0,0,0,303.051,72.3Zm0,0" transform="translate(-265.885 -64.675)" fill="#e31d1d"/>
        <path id="Caminho_347" data-name="Caminho 347" d="M15.181,255.957a8.36,8.36,0,1,0-10.253,0A10.044,10.044,0,0,0,0,264.611V268a1.582,1.582,0,0,0,1.582,1.582H18.527A1.582,1.582,0,0,0,20.11,268v-3.389A10.044,10.044,0,0,0,15.181,255.957Zm-10.322-6.6a5.2,5.2,0,1,1,5.2,5.2A5.2,5.2,0,0,1,4.859,249.36Zm12.087,17.058H3.164v-1.807a6.89,6.89,0,0,1,13.781,0v1.807Zm0,0" transform="translate(0 -215.582)" fill="#e31d1d"/>
        <path id="Caminho_348" data-name="Caminho 348" d="M219.8,0H199.466A6.662,6.662,0,0,0,192.8,6.666v30.5a1.583,1.583,0,0,0,2.531,1.266l6.356-4.767H219.8A6.662,6.662,0,0,0,226.466,27V6.666A6.662,6.662,0,0,0,219.8,0Zm3.5,27a3.5,3.5,0,0,1-3.5,3.5h-18.64a1.584,1.584,0,0,0-.949.316L195.965,34V6.666a3.5,3.5,0,0,1,3.5-3.5H219.8a3.5,3.5,0,0,1,3.5,3.5Zm0,0" transform="translate(-172.466)" fill="#e31d1d"/>
      </g>
    </g>
  </g>
</svg>
