<svg xmlns="http://www.w3.org/2000/svg" width="25.471" height="25.342" viewBox="0 0 25.471 25.342">
  <path id="notification_2_" data-name="notification (2)" d="M24.469,19.653c-2.29-1.98-4.408-4.773-4.408-11.748a7.326,7.326,0,0,0-14.652,0c0,6.981-2.118,9.772-4.409,11.75a2.9,2.9,0,0,0-1,2.186.833.833,0,0,0,.833.833H8.742a4.08,4.08,0,0,0,7.987,0h7.908a.833.833,0,0,0,.833-.833A2.884,2.884,0,0,0,24.469,19.653Zm-11.734,4.6a2.417,2.417,0,0,1-2.265-1.58H15A2.417,2.417,0,0,1,12.735,24.255ZM1.995,21.008a1.227,1.227,0,0,1,.1-.094C5.585,17.9,7.076,14.008,7.076,7.905a5.659,5.659,0,0,1,11.319,0c0,6.1,1.491,9.987,4.986,13.01a1.238,1.238,0,0,1,.1.093Z" transform="translate(0 -0.58)" fill="#ff5f39"/>
</svg>
