<svg xmlns="http://www.w3.org/2000/svg" xmlns:xlink="http://www.w3.org/1999/xlink" width="43" height="102" viewBox="0 0 43 102">
  <defs>
    <clipPath id="clip-path">
      <rect id="Retângulo_1271" data-name="Retângulo 1271" width="43" height="102"/>
    </clipPath>
  </defs>
  <g id="Prancheta_1" data-name="Prancheta – 1" clip-path="url(#clip-path)">
    <g id="pencil-edit-button" transform="translate(2.498 30.585)">
      <path id="Caminho_10032" data-name="Caminho 10032" d="M23.631,7.6l7.727,7.731L11.792,34.9,4.067,27.169Zm13.6-1.864L33.784,2.287a3.422,3.422,0,0,0-4.832,0l-3.311,3.3,7.731,7.731,3.855-3.853a2.635,2.635,0,0,0,0-3.734ZM.021,38.039a.88.88,0,0,0,1.064,1.04L9.7,37,1.974,29.262Z" transform="translate(0)" fill="#fff"/>
    </g>
  </g>
</svg>
