<svg xmlns="http://www.w3.org/2000/svg" xmlns:xlink="http://www.w3.org/1999/xlink" width="109" height="109" viewBox="0 0 109 109">
  <defs>
    <filter id="Retângulo_238" x="-30" y="-20" width="169" height="169" filterUnits="userSpaceOnUse">
      <feOffset dy="10" input="SourceAlpha"/>
      <feGaussianBlur stdDeviation="10" result="blur"/>
      <feFlood flood-opacity="0.161"/>
      <feComposite operator="in" in2="blur"/>
      <feComposite in="SourceGraphic"/>
    </filter>
    <clipPath id="clip-Prancheta_2">
      <rect width="109" height="109"/>
    </clipPath>
  </defs>
  <g id="Prancheta_2" data-name="Prancheta – 2" clip-path="url(#clip-Prancheta_2)">
    <rect width="109" height="109" fill="#fff"/>
    <g id="Grupo_306" data-name="Grupo 306" transform="translate(-248 -2433)">
      <g transform="matrix(1, 0, 0, 1, 248, 2433)" filter="url(#Retângulo_238)">
        <rect id="Retângulo_238-2" data-name="Retângulo 238" width="109" height="109" rx="13" fill="#ffa8a8"/>
      </g>
      <g id="google-sheets" transform="translate(222.148 2462.095)">
        <path id="Caminho_343" data-name="Caminho 343" d="M99.267,12.345,87.359.436A1.5,1.5,0,0,0,86.306,0H65.466A4.471,4.471,0,0,0,61,4.466V46.345a4.471,4.471,0,0,0,4.466,4.466H95.237A4.471,4.471,0,0,0,99.7,46.345V13.4A1.508,1.508,0,0,0,99.267,12.345ZM87.794,5.082l6.826,6.826H89.283a1.49,1.49,0,0,1-1.489-1.489Zm7.443,42.751H65.466a1.49,1.49,0,0,1-1.489-1.489V4.466a1.49,1.49,0,0,1,1.489-1.489H84.817V10.42a4.471,4.471,0,0,0,4.466,4.466h7.443V46.345A1.49,1.49,0,0,1,95.237,47.833Z" transform="translate(0)" fill="#e31d1d"/>
        <path id="Caminho_344" data-name="Caminho 344" d="M170.352,212H152.489A1.489,1.489,0,0,0,151,213.489v17.863a1.489,1.489,0,0,0,1.489,1.489h17.863a1.489,1.489,0,0,0,1.489-1.489V213.489A1.489,1.489,0,0,0,170.352,212Zm-16.374,8.932h5.954v2.977h-5.954Zm8.931,0h5.954v2.977h-5.954Zm5.954-2.977h-5.954v-2.977h5.954Zm-8.931-2.977v2.977h-5.954v-2.977Zm-5.954,11.909h5.954v2.977h-5.954Zm8.931,2.977v-2.977h5.954v2.977Z" transform="translate(-81.069 -190.961)" fill="#e31d1d"/>
      </g>
    </g>
  </g>
</svg>
