<svg id="Grupo_1459" data-name="Grupo 1459" xmlns="http://www.w3.org/2000/svg" width="28" height="37" viewBox="0 0 28 37">
  <text id="_" data-name="+" transform="translate(6 29)" fill="#fff" font-size="27" font-family="OpenSans-SemiBold, Open Sans" font-weight="600"><tspan x="0" y="0">+</tspan></text>
  <g id="Caminho_78" data-name="Caminho 78" transform="translate(0 6)" fill="none">
    <path d="M14,0A14,14,0,1,1,0,14,14,14,0,0,1,14,0Z" stroke="none"/>
    <path d="M 14 2 C 10.79467964172363 2 7.781219482421875 3.248220443725586 5.514720916748047 5.514720916748047 C 3.248220443725586 7.781219482421875 2 10.79467964172363 2 14 C 2 17.2053108215332 3.248220443725586 20.21878051757813 5.514720916748047 22.48527908325195 C 7.781219482421875 24.75177955627441 10.79467964172363 26 14 26 C 17.2053108215332 26 20.21878051757813 24.75177955627441 22.48527908325195 22.48527908325195 C 24.75177955627441 20.21878051757813 26 17.2053108215332 26 14 C 26 10.79467964172363 24.75177955627441 7.781219482421875 22.48527908325195 5.514720916748047 C 20.21878051757813 3.248220443725586 17.2053108215332 2 14 2 M 14 0 C 21.73197937011719 0 28 6.268009185791016 28 14 C 28 21.73197937011719 21.73197937011719 28 14 28 C 6.268009185791016 28 0 21.73197937011719 0 14 C 0 6.268009185791016 6.268009185791016 0 14 0 Z" stroke="none" fill="#fff"/>
  </g>
</svg>
