<svg xmlns="http://www.w3.org/2000/svg" xmlns:xlink="http://www.w3.org/1999/xlink" width="43" height="102" viewBox="0 0 43 102">
  <defs>
    <clipPath id="clip-Prancheta_1">
      <rect width="43" height="102"/>
    </clipPath>
  </defs>
  <g id="Prancheta_1" data-name="Prancheta – 1" clip-path="url(#clip-Prancheta_1)">
    <text id="_" data-name="+" transform="translate(5 74)" fill="#fff" font-size="60" font-family="OpenSans-SemiBold, Open Sans" font-weight="600"><tspan x="0" y="0">+</tspan></text>
  </g>
</svg>
