<svg xmlns="http://www.w3.org/2000/svg" width="47" height="48" viewBox="0 0 47 48">
  <g id="Grupo_1462" data-name="Grupo 1462" transform="translate(-873 348)">
    <ellipse id="Elipse_55" data-name="Elipse 55" cx="23.5" cy="24" rx="23.5" ry="24" transform="translate(873 -348)" fill="#cecece"/>
    <text id="_" data-name="+" transform="translate(891 -317)" fill="#555" font-size="22" font-family="OpenSans-Bold, Open Sans" font-weight="700" letter-spacing="0.02em"><tspan x="0" y="0">+</tspan></text>
  </g>
</svg>
