<svg xmlns="http://www.w3.org/2000/svg" width="26.822" height="25.578" viewBox="0 0 26.822 25.578">
  <g id="star_3_" data-name="star (3)" transform="translate(0 -0.452)">
    <path id="Caminho_80" data-name="Caminho 80" d="M14.045.873l3.412,8.075,8.734.75a.689.689,0,0,1,.392,1.206l-6.625,5.74,1.985,8.539a.688.688,0,0,1-1.026.745L13.411,21.4,5.905,25.928a.688.688,0,0,1-1.026-.745l1.985-8.539L.238,10.9A.688.688,0,0,1,.631,9.7l8.734-.75L12.777.873a.688.688,0,0,1,1.268,0Z" transform="translate(0)" fill="#ff5f39"/>
  </g>
</svg>
