<svg xmlns="http://www.w3.org/2000/svg" width="19.029" height="20.758" viewBox="0 0 19.029 20.758">
  <g id="trash" transform="translate(-18.269)">
    <g id="Grupo_215" data-name="Grupo 215" transform="translate(18.269)">
      <path id="Caminho_112" data-name="Caminho 112" d="M37.176,3.581a.421.421,0,0,0-.311-.122H32.689L31.743,1.2a1.873,1.873,0,0,0-.73-.852A1.909,1.909,0,0,0,29.946,0H25.621a1.908,1.908,0,0,0-1.068.351,1.873,1.873,0,0,0-.73.852L22.877,3.46H18.7a.416.416,0,0,0-.432.432v.865a.416.416,0,0,0,.432.432H20V18.056a2.957,2.957,0,0,0,.635,1.912,1.9,1.9,0,0,0,1.527.791H33.406a1.884,1.884,0,0,0,1.527-.817A3.069,3.069,0,0,0,35.568,18V5.189h1.3a.416.416,0,0,0,.432-.432V3.892A.422.422,0,0,0,37.176,3.581Zm-11.758-1.7a.381.381,0,0,1,.23-.149h4.284a.382.382,0,0,1,.23.149l.649,1.581H24.756ZM33.838,18a1.531,1.531,0,0,1-.095.547,1.219,1.219,0,0,1-.2.365c-.068.077-.115.115-.142.115H22.161c-.027,0-.074-.038-.142-.115a1.212,1.212,0,0,1-.2-.365A1.536,1.536,0,0,1,21.729,18V5.189H33.838V18Z" transform="translate(-18.269)"/>
      <path id="Caminho_113" data-name="Caminho 113" d="M128.337,173.1h.865a.416.416,0,0,0,.432-.433v-7.785a.416.416,0,0,0-.432-.432h-.865a.416.416,0,0,0-.432.432v7.785a.416.416,0,0,0,.432.433Z" transform="translate(-122.715 -156.665)"/>
      <path id="Caminho_114" data-name="Caminho 114" d="M201.426,173.1h.865a.416.416,0,0,0,.432-.433v-7.785a.416.416,0,0,0-.432-.432h-.865a.416.416,0,0,0-.432.432v7.785a.416.416,0,0,0,.432.433Z" transform="translate(-192.344 -156.665)"/>
      <path id="Caminho_115" data-name="Caminho 115" d="M274.516,173.1h.865a.416.416,0,0,0,.432-.433v-7.785a.416.416,0,0,0-.432-.432h-.865a.416.416,0,0,0-.433.432v7.785a.416.416,0,0,0,.433.433Z" transform="translate(-261.974 -156.665)"/>
    </g>
  </g>
</svg>
