<svg id="user_6_" data-name="user (6)" xmlns="http://www.w3.org/2000/svg" width="42.641" height="39.143" viewBox="0 0 42.641 39.143">
  <path id="Caminho_65" data-name="Caminho 65" d="M286.153,191.9a6.246,6.246,0,1,0-8.318,0A10.008,10.008,0,0,0,272,200.988v4.581a1.249,1.249,0,0,0,1.249,1.249h17.489a1.249,1.249,0,0,0,1.249-1.249v-4.581A10.008,10.008,0,0,0,286.153,191.9Zm-7.907-4.655a3.748,3.748,0,1,1,3.748,3.748A3.752,3.752,0,0,1,278.246,187.246Zm11.243,17.073H274.5v-3.331a7.5,7.5,0,0,1,14.991,0Z" transform="translate(-249.347 -167.675)" fill="#fff"/>
  <path id="Caminho_66" data-name="Caminho 66" d="M14.153,191.9a6.246,6.246,0,1,0-8.318,0A10.008,10.008,0,0,0,0,200.988v4.581a1.249,1.249,0,0,0,1.249,1.249H18.739a1.249,1.249,0,0,0,1.249-1.249v-4.581A10.008,10.008,0,0,0,14.153,191.9Zm-7.907-4.655a3.748,3.748,0,1,1,3.748,3.748A3.752,3.752,0,0,1,6.246,187.246Zm11.243,17.073H2.5v-3.331a7.5,7.5,0,0,1,14.991,0Z" transform="translate(0 -167.675)" fill="#fff"/>
  <circle id="Elipse_22" data-name="Elipse 22" cx="1" cy="1" r="1" transform="translate(20.136 10.143)" fill="#fff"/>
  <path id="Caminho_67" data-name="Caminho 67" d="M198.94,82.829a1.249,1.249,0,1,0,1.767,1.767,3.748,3.748,0,0,1,5.3,0,1.249,1.249,0,0,0,1.767-1.767,6.246,6.246,0,0,0-8.833,0Z" transform="translate(-182.036 -76.003)" fill="#fff"/>
  <path id="Caminho_68" data-name="Caminho 68" d="M158.28,26.06a8.745,8.745,0,0,1,12.367,0,1.249,1.249,0,1,0,1.767-1.767,11.243,11.243,0,0,0-15.9,0,1.249,1.249,0,1,0,1.767,1.767Z" transform="translate(-143.143 -21)" fill="#fff"/>
</svg>
