<svg xmlns="http://www.w3.org/2000/svg" width="55.036" height="55.036" viewBox="0 0 55.036 55.036">
  <g id="Grupo_302" data-name="Grupo 302" transform="translate(-907.732 -2759.732)">
    <line id="Linha_127" data-name="Linha 127" x1="51.5" y2="51.5" transform="translate(909.5 2761.5)" fill="none" stroke="#212a46" stroke-width="5"/>
    <line id="Linha_156" data-name="Linha 156" x2="51.5" y2="51.5" transform="translate(909.5 2761.5)" fill="none" stroke="#212a46" stroke-width="5"/>
  </g>
</svg>
