<svg id="instagram-logo" xmlns="http://www.w3.org/2000/svg" width="33.557" height="33.557" viewBox="0 0 33.557 33.557">
  <path id="Caminho_305" data-name="Caminho 305" d="M24.3,0H9.26A9.271,9.271,0,0,0,0,9.261V24.3a9.271,9.271,0,0,0,9.26,9.261H24.3A9.271,9.271,0,0,0,33.557,24.3V9.261A9.271,9.271,0,0,0,24.3,0ZM30.58,24.3A6.29,6.29,0,0,1,24.3,30.58H9.26A6.29,6.29,0,0,1,2.977,24.3V9.261A6.29,6.29,0,0,1,9.26,2.977H24.3A6.291,6.291,0,0,1,30.58,9.261V24.3Z" transform="translate(0 0)" fill="#fff"/>
  <path id="Caminho_306" data-name="Caminho 306" d="M49.615,40.97a8.647,8.647,0,1,0,8.647,8.647A8.657,8.657,0,0,0,49.615,40.97Zm0,14.316a5.669,5.669,0,1,1,5.67-5.669A5.676,5.676,0,0,1,49.615,55.286Z" transform="translate(-32.836 -32.838)" fill="#fff"/>
  <path id="Caminho_307" data-name="Caminho 307" d="M121.1,28.251a2.182,2.182,0,1,0,1.544.639A2.192,2.192,0,0,0,121.1,28.251Z" transform="translate(-95.316 -22.643)" fill="#fff"/>
</svg>
